…
# View the result
> print(summary_data)

# A tibble: 414 × 3
   Director._1_     Movies_count Total_Revenue
   <chr>                   <int>         <int>
 1 Chris Renaud                3    2044500000
 2 Zack Snyder                 2    1540700000
 3 Francis Lawrence            2    1408800000
 4 Bryan Singer                2    1292500000
 5 Steve Martino               2    1123200000
 6 Ridley Scott                2    1033600000
 7 Justin Lin                  2    1031700000
 8 Phil Lord                   3    1002000000
 9 Peter Jackson               1     956000000
10 David Ayer                  4     914100000
# ℹ 404 more rows
# ℹ Use `print(n = ...)` to see more rows
…
